LOG_FILE.log
UVM_INFO sr_scoreboard.sv(82) @ 5: uvm_test_top.env_h.scoreboard_h [write_mon OUT ]  s=0  r=0 ||  q=x qbar=x
UVM_INFO sr_scoreboard.sv(50) @ 5: uvm_test_top.env_h.scoreboard_h [write_drv STIM]  s=1  r=0
UVM_INFO sr_scoreboard.sv(82) @ 10: uvm_test_top.env_h.scoreboard_h [write_mon OUT ]  s=1  r=0 ||  q=1 qbar=0
UVM_INFO sr_scoreboard.sv(50) @ 10: uvm_test_top.env_h.scoreboard_h [write_drv STIM]  s=1  r=0
UVM_INFO sr_scoreboard.sv(99) @ 10: uvm_test_top.env_h.scoreboard_h [
 [ PASS ]  s=1  r=0 ||  q=1 qbar=0
UVM_INFO sr_scoreboard.sv(82) @ 15: uvm_test_top.env_h.scoreboard_h [write_mon OUT ]  s=1  r=0 ||  q=1 qbar=0
UVM_INFO sr_scoreboard.sv(50) @ 15: uvm_test_top.env_h.scoreboard_h [write_drv STIM]  s=0  r=1
UVM_INFO sr_scoreboard.sv(99) @ 15: uvm_test_top.env_h.scoreboard_h [
 [ PASS ]  s=1  r=0 ||  q=1 qbar=0
UVM_INFO sr_scoreboard.sv(82) @ 20: uvm_test_top.env_h.scoreboard_h [write_mon OUT ]  s=0  r=1 ||  q=0 qbar=1
UVM_INFO sr_scoreboard.sv(50) @ 20: uvm_test_top.env_h.scoreboard_h [write_drv STIM]  s=0  r=1
UVM_INFO sr_scoreboard.sv(99) @ 20: uvm_test_top.env_h.scoreboard_h [
 [ PASS ]  s=0  r=1 ||  q=0 qbar=1
UVM_INFO sr_scoreboard.sv(82) @ 25: uvm_test_top.env_h.scoreboard_h [write_mon OUT ]  s=0  r=1 ||  q=0 qbar=1
UVM_INFO sr_scoreboard.sv(50) @ 25: uvm_test_top.env_h.scoreboard_h [write_drv STIM]  s=1  r=1
UVM_INFO sr_scoreboard.sv(99) @ 25: uvm_test_top.env_h.scoreboard_h [
 [ PASS ]  s=0  r=1 ||  q=0 qbar=1
UVM_INFO sr_scoreboard.sv(82) @ 30: uvm_test_top.env_h.scoreboard_h [write_mon OUT ]  s=1  r=1 ||  q=x qbar=x
UVM_INFO sr_scoreboard.sv(50) @ 30: uvm_test_top.env_h.scoreboard_h [write_drv STIM]  s=1  r=0
UVM_INFO sr_scoreboard.sv(99) @ 30: uvm_test_top.env_h.scoreboard_h [
 [ PASS ]  s=1  r=1 ||  q=x qbar=x
UVM_INFO sr_scoreboard.sv(82) @ 35: uvm_test_top.env_h.scoreboard_h [write_mon OUT ]  s=1  r=0 ||  q=1 qbar=0
UVM_INFO sr_scoreboard.sv(50) @ 35: uvm_test_top.env_h.scoreboard_h [write_drv STIM]  s=0  r=0
UVM_INFO sr_scoreboard.sv(99) @ 35: uvm_test_top.env_h.scoreboard_h [
 [ PASS ]  s=1  r=0 ||  q=1 qbar=0
UVM_INFO sr_scoreboard.sv(82) @ 40: uvm_test_top.env_h.scoreboard_h [write_mon OUT ]  s=0  r=0 ||  q=1 qbar=0
UVM_INFO sr_scoreboard.sv(50) @ 40: uvm_test_top.env_h.scoreboard_h [write_drv STIM]  s=0  r=0
UVM_INFO sr_scoreboard.sv(99) @ 40: uvm_test_top.env_h.scoreboard_h [
 [ PASS ]  s=0  r=0 ||  q=1 qbar=0
UVM_INFO sr_scoreboard.sv(82) @ 45: uvm_test_top.env_h.scoreboard_h [write_mon OUT ]  s=0  r=0 ||  q=1 qbar=0
UVM_INFO sr_scoreboard.sv(50) @ 45: uvm_test_top.env_h.scoreboard_h [write_drv STIM]  s=0  r=1
UVM_INFO sr_scoreboard.sv(99) @ 45: uvm_test_top.env_h.scoreboard_h [
 [ PASS ]  s=0  r=0 ||  q=1 qbar=0
UVM_INFO sr_scoreboard.sv(82) @ 50: uvm_test_top.env_h.scoreboard_h [write_mon OUT ]  s=0  r=1 ||  q=0 qbar=1
UVM_INFO sr_scoreboard.sv(50) @ 50: uvm_test_top.env_h.scoreboard_h [write_drv STIM]  s=0  r=0
UVM_INFO sr_scoreboard.sv(99) @ 50: uvm_test_top.env_h.scoreboard_h [
 [ PASS ]  s=0  r=1 ||  q=0 qbar=1
UVM_INFO sr_scoreboard.sv(82) @ 55: uvm_test_top.env_h.scoreboard_h [write_mon OUT ]  s=0  r=0 ||  q=0 qbar=1
UVM_INFO sr_scoreboard.sv(50) @ 55: uvm_test_top.env_h.scoreboard_h [write_drv STIM]  s=1  r=1
UVM_INFO sr_scoreboard.sv(99) @ 55: uvm_test_top.env_h.scoreboard_h [
 [ PASS ]  s=0  r=0 ||  q=0 qbar=1
UVM_INFO sr_scoreboard.sv(82) @ 60: uvm_test_top.env_h.scoreboard_h [write_mon OUT ]  s=1  r=1 ||  q=x qbar=x
UVM_INFO sr_scoreboard.sv(50) @ 60: uvm_test_top.env_h.scoreboard_h [write_drv STIM]  s=1  r=1
UVM_INFO sr_scoreboard.sv(99) @ 60: uvm_test_top.env_h.scoreboard_h [
 [ PASS ]  s=1  r=1 ||  q=x qbar=x
UVM_INFO sr_scoreboard.sv(82) @ 65: uvm_test_top.env_h.scoreboard_h [write_mon OUT ]  s=1  r=1 ||  q=x qbar=x
UVM_INFO sr_scoreboard.sv(50) @ 65: uvm_test_top.env_h.scoreboard_h [write_drv STIM]  s=1  r=0
UVM_INFO sr_scoreboard.sv(99) @ 65: uvm_test_top.env_h.scoreboard_h [
 [ PASS ]  s=1  r=1 ||  q=x qbar=x
UVM_INFO sr_scoreboard.sv(82) @ 70: uvm_test_top.env_h.scoreboard_h [write_mon OUT ]  s=1  r=0 ||  q=1 qbar=0
UVM_INFO sr_scoreboard.sv(50) @ 70: uvm_test_top.env_h.scoreboard_h [write_drv STIM]  s=0  r=0
UVM_INFO sr_scoreboard.sv(99) @ 70: uvm_test_top.env_h.scoreboard_h [
 [ PASS ]  s=1  r=0 ||  q=1 qbar=0
UVM_INFO sr_scoreboard.sv(82) @ 75: uvm_test_top.env_h.scoreboard_h [write_mon OUT ]  s=0  r=0 ||  q=1 qbar=0
UVM_INFO sr_scoreboard.sv(50) @ 75: uvm_test_top.env_h.scoreboard_h [write_drv STIM]  s=0  r=1
UVM_INFO sr_scoreboard.sv(99) @ 75: uvm_test_top.env_h.scoreboard_h [
 [ PASS ]  s=0  r=0 ||  q=1 qbar=0
UVM_INFO sr_scoreboard.sv(82) @ 80: uvm_test_top.env_h.scoreboard_h [write_mon OUT ]  s=0  r=1 ||  q=0 qbar=1
UVM_INFO sr_scoreboard.sv(50) @ 80: uvm_test_top.env_h.scoreboard_h [write_drv STIM]  s=0  r=0
UVM_INFO sr_scoreboard.sv(99) @ 80: uvm_test_top.env_h.scoreboard_h [
 [ PASS ]  s=0  r=1 ||  q=0 qbar=1
UVM_INFO sr_scoreboard.sv(82) @ 85: uvm_test_top.env_h.scoreboard_h [write_mon OUT ]  s=0  r=0 ||  q=0 qbar=1
UVM_INFO sr_scoreboard.sv(50) @ 85: uvm_test_top.env_h.scoreboard_h [write_drv STIM]  s=0  r=0
UVM_INFO sr_scoreboard.sv(99) @ 85: uvm_test_top.env_h.scoreboard_h [
 [ PASS ]  s=0  r=0 ||  q=0 qbar=1
UVM_INFO sr_scoreboard.sv(82) @ 90: uvm_test_top.env_h.scoreboard_h [write_mon OUT ]  s=0  r=0 ||  q=0 qbar=1
UVM_INFO sr_scoreboard.sv(50) @ 90: uvm_test_top.env_h.scoreboard_h [write_drv STIM]  s=1  r=0
UVM_INFO sr_scoreboard.sv(99) @ 90: uvm_test_top.env_h.scoreboard_h [
 [ PASS ]  s=0  r=0 ||  q=0 qbar=1
UVM_INFO sr_scoreboard.sv(82) @ 95: uvm_test_top.env_h.scoreboard_h [write_mon OUT ]  s=1  r=0 ||  q=1 qbar=0
UVM_INFO sr_scoreboard.sv(50) @ 95: uvm_test_top.env_h.scoreboard_h [write_drv STIM]  s=0  r=0
UVM_INFO sr_scoreboard.sv(99) @ 95: uvm_test_top.env_h.scoreboard_h [
 [ PASS ]  s=1  r=0 ||  q=1 qbar=0
UVM_INFO sr_scoreboard.sv(82) @ 100: uvm_test_top.env_h.scoreboard_h [write_mon OUT ]  s=0  r=0 ||  q=1 qbar=0
UVM_INFO sr_scoreboard.sv(50) @ 100: uvm_test_top.env_h.scoreboard_h [write_drv STIM]  s=0  r=1
UVM_INFO sr_scoreboard.sv(99) @ 100: uvm_test_top.env_h.scoreboard_h [
 [ PASS ]  s=0  r=0 ||  q=1 qbar=0
UVM_INFO sr_scoreboard.sv(82) @ 105: uvm_test_top.env_h.scoreboard_h [write_mon OUT ]  s=0  r=1 ||  q=0 qbar=1
UVM_INFO sr_scoreboard.sv(50) @ 105: uvm_test_top.env_h.scoreboard_h [write_drv STIM]  s=0  r=0
UVM_INFO sr_scoreboard.sv(99) @ 105: uvm_test_top.env_h.scoreboard_h [
 [ PASS ]  s=0  r=1 ||  q=0 qbar=1
UVM_INFO sr_scoreboard.sv(82) @ 110: uvm_test_top.env_h.scoreboard_h [write_mon OUT ]  s=0  r=0 ||  q=0 qbar=1
UVM_INFO sr_scoreboard.sv(50) @ 110: uvm_test_top.env_h.scoreboard_h [write_drv STIM]  s=1  r=0
UVM_INFO sr_scoreboard.sv(99) @ 110: uvm_test_top.env_h.scoreboard_h [
 [ PASS ]  s=0  r=0 ||  q=0 qbar=1
UVM_INFO sr_scoreboard.sv(82) @ 115: uvm_test_top.env_h.scoreboard_h [write_mon OUT ]  s=1  r=0 ||  q=1 qbar=0
UVM_INFO sr_scoreboard.sv(50) @ 115: uvm_test_top.env_h.scoreboard_h [write_drv STIM]  s=0  r=1
UVM_INFO sr_scoreboard.sv(99) @ 115: uvm_test_top.env_h.scoreboard_h [
 [ PASS ]  s=1  r=0 ||  q=1 qbar=0
UVM_INFO sr_scoreboard.sv(82) @ 120: uvm_test_top.env_h.scoreboard_h [write_mon OUT ]  s=0  r=1 ||  q=0 qbar=1
UVM_INFO sr_scoreboard.sv(50) @ 120: uvm_test_top.env_h.scoreboard_h [write_drv STIM]  s=1  r=0
UVM_INFO sr_scoreboard.sv(99) @ 120: uvm_test_top.env_h.scoreboard_h [
 [ PASS ]  s=0  r=1 ||  q=0 qbar=1
UVM_INFO sr_scoreboard.sv(82) @ 125: uvm_test_top.env_h.scoreboard_h [write_mon OUT ]  s=1  r=0 ||  q=1 qbar=0
UVM_INFO sr_scoreboard.sv(50) @ 125: uvm_test_top.env_h.scoreboard_h [write_drv STIM]  s=0  r=0
UVM_INFO sr_scoreboard.sv(99) @ 125: uvm_test_top.env_h.scoreboard_h [
 [ PASS ]  s=1  r=0 ||  q=1 qbar=0
UVM_INFO sr_scoreboard.sv(82) @ 130: uvm_test_top.env_h.scoreboard_h [write_mon OUT ]  s=0  r=0 ||  q=1 qbar=0
UVM_INFO sr_scoreboard.sv(50) @ 130: uvm_test_top.env_h.scoreboard_h [write_drv STIM]  s=0  r=1
UVM_INFO sr_scoreboard.sv(99) @ 130: uvm_test_top.env_h.scoreboard_h [
 [ PASS ]  s=0  r=0 ||  q=1 qbar=0
UVM_INFO sr_scoreboard.sv(82) @ 135: uvm_test_top.env_h.scoreboard_h [write_mon OUT ]  s=0  r=1 ||  q=0 qbar=1
UVM_INFO sr_scoreboard.sv(50) @ 135: uvm_test_top.env_h.scoreboard_h [write_drv STIM]  s=1  r=0
UVM_INFO sr_scoreboard.sv(99) @ 135: uvm_test_top.env_h.scoreboard_h [
 [ PASS ]  s=0  r=1 ||  q=0 qbar=1
UVM_INFO sr_scoreboard.sv(82) @ 140: uvm_test_top.env_h.scoreboard_h [write_mon OUT ]  s=1  r=0 ||  q=1 qbar=0
UVM_INFO sr_scoreboard.sv(50) @ 140: uvm_test_top.env_h.scoreboard_h [write_drv STIM]  s=0  r=0
UVM_INFO sr_scoreboard.sv(99) @ 140: uvm_test_top.env_h.scoreboard_h [
 [ PASS ]  s=1  r=0 ||  q=1 qbar=0
UVM_INFO sr_scoreboard.sv(82) @ 145: uvm_test_top.env_h.scoreboard_h [write_mon OUT ]  s=0  r=0 ||  q=1 qbar=0
UVM_INFO sr_scoreboard.sv(50) @ 145: uvm_test_top.env_h.scoreboard_h [write_drv STIM]  s=0  r=1
UVM_INFO sr_scoreboard.sv(99) @ 145: uvm_test_top.env_h.scoreboard_h [
 [ PASS ]  s=0  r=0 ||  q=1 qbar=0
UVM_INFO sr_scoreboard.sv(82) @ 150: uvm_test_top.env_h.scoreboard_h [write_mon OUT ]  s=0  r=1 ||  q=0 qbar=1
UVM_INFO sr_scoreboard.sv(50) @ 150: uvm_test_top.env_h.scoreboard_h [write_drv STIM]  s=1  r=1
UVM_INFO sr_scoreboard.sv(99) @ 150: uvm_test_top.env_h.scoreboard_h [
 [ PASS ]  s=0  r=1 ||  q=0 qbar=1
UVM_INFO sr_scoreboard.sv(82) @ 155: uvm_test_top.env_h.scoreboard_h [write_mon OUT ]  s=1  r=1 ||  q=x qbar=x
UVM_INFO sr_scoreboard.sv(50) @ 155: uvm_test_top.env_h.scoreboard_h [write_drv STIM]  s=1  r=1
UVM_INFO sr_scoreboard.sv(99) @ 155: uvm_test_top.env_h.scoreboard_h [
 [ PASS ]  s=1  r=1 ||  q=x qbar=x
UVM_INFO sr_scoreboard.sv(82) @ 160: uvm_test_top.env_h.scoreboard_h [write_mon OUT ]  s=1  r=1 ||  q=x qbar=x
UVM_INFO sr_scoreboard.sv(50) @ 160: uvm_test_top.env_h.scoreboard_h [write_drv STIM]  s=0  r=1
UVM_INFO sr_scoreboard.sv(99) @ 160: uvm_test_top.env_h.scoreboard_h [
 [ PASS ]  s=1  r=1 ||  q=x qbar=x
UVM_INFO sr_scoreboard.sv(82) @ 165: uvm_test_top.env_h.scoreboard_h [write_mon OUT ]  s=0  r=1 ||  q=0 qbar=1
UVM_INFO sr_scoreboard.sv(50) @ 165: uvm_test_top.env_h.scoreboard_h [write_drv STIM]  s=0  r=1
UVM_INFO sr_scoreboard.sv(99) @ 165: uvm_test_top.env_h.scoreboard_h [
 [ PASS ]  s=0  r=1 ||  q=0 qbar=1
UVM_INFO sr_scoreboard.sv(82) @ 170: uvm_test_top.env_h.scoreboard_h [write_mon OUT ]  s=0  r=1 ||  q=0 qbar=1
UVM_INFO sr_scoreboard.sv(50) @ 170: uvm_test_top.env_h.scoreboard_h [write_drv STIM]  s=0  r=0
UVM_INFO sr_scoreboard.sv(99) @ 170: uvm_test_top.env_h.scoreboard_h [
 [ PASS ]  s=0  r=1 ||  q=0 qbar=1
UVM_INFO sr_scoreboard.sv(82) @ 175: uvm_test_top.env_h.scoreboard_h [write_mon OUT ]  s=0  r=0 ||  q=0 qbar=1
UVM_INFO sr_scoreboard.sv(50) @ 175: uvm_test_top.env_h.scoreboard_h [write_drv STIM]  s=1  r=1
UVM_INFO sr_scoreboard.sv(99) @ 175: uvm_test_top.env_h.scoreboard_h [
 [ PASS ]  s=0  r=0 ||  q=0 qbar=1
UVM_INFO sr_scoreboard.sv(82) @ 180: uvm_test_top.env_h.scoreboard_h [write_mon OUT ]  s=1  r=1 ||  q=x qbar=x
UVM_INFO sr_scoreboard.sv(50) @ 180: uvm_test_top.env_h.scoreboard_h [write_drv STIM]  s=0  r=1
UVM_INFO sr_scoreboard.sv(99) @ 180: uvm_test_top.env_h.scoreboard_h [
 [ PASS ]  s=1  r=1 ||  q=x qbar=x
UVM_INFO sr_scoreboard.sv(82) @ 185: uvm_test_top.env_h.scoreboard_h [write_mon OUT ]  s=0  r=1 ||  q=0 qbar=1
UVM_INFO sr_scoreboard.sv(50) @ 185: uvm_test_top.env_h.scoreboard_h [write_drv STIM]  s=0  r=1
UVM_INFO sr_scoreboard.sv(99) @ 185: uvm_test_top.env_h.scoreboard_h [
 [ PASS ]  s=0  r=1 ||  q=0 qbar=1
UVM_INFO sr_scoreboard.sv(82) @ 190: uvm_test_top.env_h.scoreboard_h [write_mon OUT ]  s=0  r=1 ||  q=0 qbar=1
UVM_INFO sr_scoreboard.sv(50) @ 190: uvm_test_top.env_h.scoreboard_h [write_drv STIM]  s=0  r=0
UVM_INFO sr_scoreboard.sv(99) @ 190: uvm_test_top.env_h.scoreboard_h [
 [ PASS ]  s=0  r=1 ||  q=0 qbar=1
UVM_INFO sr_scoreboard.sv(82) @ 195: uvm_test_top.env_h.scoreboard_h [write_mon OUT ]  s=0  r=0 ||  q=0 qbar=1
UVM_INFO sr_scoreboard.sv(50) @ 195: uvm_test_top.env_h.scoreboard_h [write_drv STIM]  s=1  r=0
UVM_INFO sr_scoreboard.sv(99) @ 195: uvm_test_top.env_h.scoreboard_h [
 [ PASS ]  s=0  r=0 ||  q=0 qbar=1
UVM_INFO sr_scoreboard.sv(82) @ 200: uvm_test_top.env_h.scoreboard_h [write_mon OUT ]  s=1  r=0 ||  q=1 qbar=0
UVM_INFO sr_scoreboard.sv(50) @ 200: uvm_test_top.env_h.scoreboard_h [write_drv STIM]  s=0  r=1
UVM_INFO sr_scoreboard.sv(99) @ 200: uvm_test_top.env_h.scoreboard_h [
 [ PASS ]  s=1  r=0 ||  q=1 qbar=0
UVM_INFO sr_scoreboard.sv(82) @ 205: uvm_test_top.env_h.scoreboard_h [write_mon OUT ]  s=0  r=1 ||  q=0 qbar=1
UVM_INFO sr_scoreboard.sv(50) @ 205: uvm_test_top.env_h.scoreboard_h [write_drv STIM]  s=0  r=1
UVM_INFO sr_scoreboard.sv(99) @ 205: uvm_test_top.env_h.scoreboard_h [
 [ PASS ]  s=0  r=1 ||  q=0 qbar=1
UVM_INFO sr_scoreboard.sv(82) @ 210: uvm_test_top.env_h.scoreboard_h [write_mon OUT ]  s=0  r=1 ||  q=0 qbar=1
UVM_INFO sr_scoreboard.sv(50) @ 210: uvm_test_top.env_h.scoreboard_h [write_drv STIM]  s=1  r=0
UVM_INFO sr_scoreboard.sv(99) @ 210: uvm_test_top.env_h.scoreboard_h [
 [ PASS ]  s=0  r=1 ||  q=0 qbar=1
UVM_INFO sr_scoreboard.sv(82) @ 215: uvm_test_top.env_h.scoreboard_h [write_mon OUT ]  s=1  r=0 ||  q=1 qbar=0
UVM_INFO sr_scoreboard.sv(50) @ 215: uvm_test_top.env_h.scoreboard_h [write_drv STIM]  s=1  r=1
UVM_INFO sr_scoreboard.sv(99) @ 215: uvm_test_top.env_h.scoreboard_h [
 [ PASS ]  s=1  r=0 ||  q=1 qbar=0
UVM_INFO sr_scoreboard.sv(82) @ 220: uvm_test_top.env_h.scoreboard_h [write_mon OUT ]  s=1  r=1 ||  q=x qbar=x
UVM_INFO sr_scoreboard.sv(50) @ 220: uvm_test_top.env_h.scoreboard_h [write_drv STIM]  s=1  r=1
UVM_INFO sr_scoreboard.sv(99) @ 220: uvm_test_top.env_h.scoreboard_h [
 [ PASS ]  s=1  r=1 ||  q=x qbar=x
UVM_INFO sr_scoreboard.sv(82) @ 225: uvm_test_top.env_h.scoreboard_h [write_mon OUT ]  s=1  r=1 ||  q=x qbar=x
UVM_INFO sr_scoreboard.sv(50) @ 225: uvm_test_top.env_h.scoreboard_h [write_drv STIM]  s=0  r=1
UVM_INFO sr_scoreboard.sv(99) @ 225: uvm_test_top.env_h.scoreboard_h [
 [ PASS ]  s=1  r=1 ||  q=x qbar=x
UVM_INFO sr_scoreboard.sv(82) @ 230: uvm_test_top.env_h.scoreboard_h [write_mon OUT ]  s=0  r=1 ||  q=0 qbar=1
UVM_INFO sr_scoreboard.sv(50) @ 230: uvm_test_top.env_h.scoreboard_h [write_drv STIM]  s=1  r=1
UVM_INFO sr_scoreboard.sv(99) @ 230: uvm_test_top.env_h.scoreboard_h [
 [ PASS ]  s=0  r=1 ||  q=0 qbar=1
UVM_INFO sr_scoreboard.sv(82) @ 235: uvm_test_top.env_h.scoreboard_h [write_mon OUT ]  s=1  r=1 ||  q=x qbar=x
UVM_INFO sr_scoreboard.sv(50) @ 235: uvm_test_top.env_h.scoreboard_h [write_drv STIM]  s=0  r=1
UVM_INFO sr_scoreboard.sv(99) @ 235: uvm_test_top.env_h.scoreboard_h [
 [ PASS ]  s=1  r=1 ||  q=x qbar=x
UVM_INFO sr_scoreboard.sv(82) @ 240: uvm_test_top.env_h.scoreboard_h [write_mon OUT ]  s=0  r=1 ||  q=0 qbar=1
UVM_INFO sr_scoreboard.sv(50) @ 240: uvm_test_top.env_h.scoreboard_h [write_drv STIM]  s=1  r=1
UVM_INFO sr_scoreboard.sv(99) @ 240: uvm_test_top.env_h.scoreboard_h [
 [ PASS ]  s=0  r=1 ||  q=0 qbar=1
UVM_INFO sr_scoreboard.sv(82) @ 245: uvm_test_top.env_h.scoreboard_h [write_mon OUT ]  s=1  r=1 ||  q=x qbar=x
UVM_INFO sr_scoreboard.sv(50) @ 245: uvm_test_top.env_h.scoreboard_h [write_drv STIM]  s=0  r=1
UVM_INFO sr_scoreboard.sv(99) @ 245: uvm_test_top.env_h.scoreboard_h [
 [ PASS ]  s=1  r=1 ||  q=x qbar=x
UVM_INFO sr_scoreboard.sv(82) @ 250: uvm_test_top.env_h.scoreboard_h [write_mon OUT ]  s=0  r=1 ||  q=0 qbar=1
UVM_INFO sr_scoreboard.sv(50) @ 250: uvm_test_top.env_h.scoreboard_h [write_drv STIM]  s=0  r=1
UVM_INFO sr_scoreboard.sv(99) @ 250: uvm_test_top.env_h.scoreboard_h [
 [ PASS ]  s=0  r=1 ||  q=0 qbar=1
UVM_INFO sr_scoreboard.sv(82) @ 255: uvm_test_top.env_h.scoreboard_h [write_mon OUT ]  s=0  r=1 ||  q=0 qbar=1
UVM_INFO sr_scoreboard.sv(50) @ 255: uvm_test_top.env_h.scoreboard_h [write_drv STIM]  s=1  r=0
UVM_INFO sr_scoreboard.sv(99) @ 255: uvm_test_top.env_h.scoreboard_h [
 [ PASS ]  s=0  r=1 ||  q=0 qbar=1
UVM_INFO sr_scoreboard.sv(82) @ 260: uvm_test_top.env_h.scoreboard_h [write_mon OUT ]  s=1  r=0 ||  q=1 qbar=0
UVM_INFO sr_scoreboard.sv(50) @ 260: uvm_test_top.env_h.scoreboard_h [write_drv STIM]  s=0  r=0
UVM_INFO sr_scoreboard.sv(99) @ 260: uvm_test_top.env_h.scoreboard_h [
 [ PASS ]  s=1  r=0 ||  q=1 qbar=0
UVM_INFO sr_scoreboard.sv(82) @ 265: uvm_test_top.env_h.scoreboard_h [write_mon OUT ]  s=0  r=0 ||  q=1 qbar=0
UVM_INFO sr_scoreboard.sv(50) @ 265: uvm_test_top.env_h.scoreboard_h [write_drv STIM]  s=1  r=0
UVM_INFO sr_scoreboard.sv(99) @ 265: uvm_test_top.env_h.scoreboard_h [
 [ PASS ]  s=0  r=0 ||  q=1 qbar=0
UVM_INFO sr_scoreboard.sv(82) @ 270: uvm_test_top.env_h.scoreboard_h [write_mon OUT ]  s=1  r=0 ||  q=1 qbar=0
UVM_INFO sr_scoreboard.sv(50) @ 270: uvm_test_top.env_h.scoreboard_h [write_drv STIM]  s=0  r=0
UVM_INFO sr_scoreboard.sv(99) @ 270: uvm_test_top.env_h.scoreboard_h [
 [ PASS ]  s=1  r=0 ||  q=1 qbar=0
UVM_INFO sr_scoreboard.sv(82) @ 275: uvm_test_top.env_h.scoreboard_h [write_mon OUT ]  s=0  r=0 ||  q=1 qbar=0
UVM_INFO sr_scoreboard.sv(50) @ 275: uvm_test_top.env_h.scoreboard_h [write_drv STIM]  s=1  r=0
UVM_INFO sr_scoreboard.sv(99) @ 275: uvm_test_top.env_h.scoreboard_h [
 [ PASS ]  s=0  r=0 ||  q=1 qbar=0
UVM_INFO sr_scoreboard.sv(82) @ 280: uvm_test_top.env_h.scoreboard_h [write_mon OUT ]  s=1  r=0 ||  q=1 qbar=0
UVM_INFO sr_scoreboard.sv(50) @ 280: uvm_test_top.env_h.scoreboard_h [write_drv STIM]  s=0  r=0
UVM_INFO sr_scoreboard.sv(99) @ 280: uvm_test_top.env_h.scoreboard_h [
 [ PASS ]  s=1  r=0 ||  q=1 qbar=0
UVM_INFO sr_scoreboard.sv(82) @ 285: uvm_test_top.env_h.scoreboard_h [write_mon OUT ]  s=0  r=0 ||  q=1 qbar=0
UVM_INFO sr_scoreboard.sv(50) @ 285: uvm_test_top.env_h.scoreboard_h [write_drv STIM]  s=1  r=0
UVM_INFO sr_scoreboard.sv(99) @ 285: uvm_test_top.env_h.scoreboard_h [
 [ PASS ]  s=0  r=0 ||  q=1 qbar=0
UVM_INFO sr_scoreboard.sv(82) @ 290: uvm_test_top.env_h.scoreboard_h [write_mon OUT ]  s=1  r=0 ||  q=1 qbar=0
UVM_INFO sr_scoreboard.sv(50) @ 290: uvm_test_top.env_h.scoreboard_h [write_drv STIM]  s=0  r=0
UVM_INFO sr_scoreboard.sv(99) @ 290: uvm_test_top.env_h.scoreboard_h [
 [ PASS ]  s=1  r=0 ||  q=1 qbar=0
UVM_INFO sr_scoreboard.sv(82) @ 295: uvm_test_top.env_h.scoreboard_h [write_mon OUT ]  s=0  r=0 ||  q=1 qbar=0
UVM_INFO sr_scoreboard.sv(50) @ 295: uvm_test_top.env_h.scoreboard_h [write_drv STIM]  s=1  r=0
UVM_INFO sr_scoreboard.sv(99) @ 295: uvm_test_top.env_h.scoreboard_h [
 [ PASS ]  s=0  r=0 ||  q=1 qbar=0
UVM_INFO sr_scoreboard.sv(82) @ 300: uvm_test_top.env_h.scoreboard_h [write_mon OUT ]  s=1  r=0 ||  q=1 qbar=0
UVM_INFO sr_scoreboard.sv(50) @ 300: uvm_test_top.env_h.scoreboard_h [write_drv STIM]  s=0  r=0
UVM_INFO sr_scoreboard.sv(99) @ 300: uvm_test_top.env_h.scoreboard_h [
 [ PASS ]  s=1  r=0 ||  q=1 qbar=0
UVM_INFO sr_scoreboard.sv(82) @ 305: uvm_test_top.env_h.scoreboard_h [write_mon OUT ]  s=0  r=0 ||  q=1 qbar=0
UVM_INFO sr_scoreboard.sv(50) @ 305: uvm_test_top.env_h.scoreboard_h [write_drv STIM]  s=1  r=0
UVM_INFO sr_scoreboard.sv(99) @ 305: uvm_test_top.env_h.scoreboard_h [
 [ PASS ]  s=0  r=0 ||  q=1 qbar=0
UVM_INFO sr_scoreboard.sv(82) @ 310: uvm_test_top.env_h.scoreboard_h [write_mon OUT ]  s=1  r=0 ||  q=1 qbar=0
UVM_INFO sr_scoreboard.sv(50) @ 310: uvm_test_top.env_h.scoreboard_h [write_drv STIM]  s=0  r=0
UVM_INFO sr_scoreboard.sv(99) @ 310: uvm_test_top.env_h.scoreboard_h [
 [ PASS ]  s=1  r=0 ||  q=1 qbar=0
UVM_INFO sr_scoreboard.sv(82) @ 315: uvm_test_top.env_h.scoreboard_h [write_mon OUT ]  s=0  r=0 ||  q=1 qbar=0
UVM_INFO sr_scoreboard.sv(50) @ 315: uvm_test_top.env_h.scoreboard_h [write_drv STIM]  s=1  r=0
UVM_INFO sr_scoreboard.sv(99) @ 315: uvm_test_top.env_h.scoreboard_h [
 [ PASS ]  s=0  r=0 ||  q=1 qbar=0
UVM_INFO sr_scoreboard.sv(82) @ 320: uvm_test_top.env_h.scoreboard_h [write_mon OUT ]  s=1  r=0 ||  q=1 qbar=0
UVM_INFO sr_scoreboard.sv(50) @ 320: uvm_test_top.env_h.scoreboard_h [write_drv STIM]  s=0  r=0
UVM_INFO sr_scoreboard.sv(99) @ 320: uvm_test_top.env_h.scoreboard_h [
 [ PASS ]  s=1  r=0 ||  q=1 qbar=0
UVM_INFO sr_scoreboard.sv(82) @ 325: uvm_test_top.env_h.scoreboard_h [write_mon OUT ]  s=0  r=0 ||  q=1 qbar=0
UVM_INFO sr_scoreboard.sv(50) @ 325: uvm_test_top.env_h.scoreboard_h [write_drv STIM]  s=1  r=0
UVM_INFO sr_scoreboard.sv(99) @ 325: uvm_test_top.env_h.scoreboard_h [
 [ PASS ]  s=0  r=0 ||  q=1 qbar=0
UVM_INFO sr_scoreboard.sv(82) @ 330: uvm_test_top.env_h.scoreboard_h [write_mon OUT ]  s=1  r=0 ||  q=1 qbar=0
UVM_INFO sr_scoreboard.sv(50) @ 330: uvm_test_top.env_h.scoreboard_h [write_drv STIM]  s=0  r=0
UVM_INFO sr_scoreboard.sv(99) @ 330: uvm_test_top.env_h.scoreboard_h [
 [ PASS ]  s=1  r=0 ||  q=1 qbar=0
UVM_INFO sr_scoreboard.sv(82) @ 335: uvm_test_top.env_h.scoreboard_h [write_mon OUT ]  s=0  r=0 ||  q=1 qbar=0
UVM_INFO sr_scoreboard.sv(50) @ 335: uvm_test_top.env_h.scoreboard_h [write_drv STIM]  s=1  r=0
UVM_INFO sr_scoreboard.sv(99) @ 335: uvm_test_top.env_h.scoreboard_h [
 [ PASS ]  s=0  r=0 ||  q=1 qbar=0
UVM_INFO sr_scoreboard.sv(82) @ 340: uvm_test_top.env_h.scoreboard_h [write_mon OUT ]  s=1  r=0 ||  q=1 qbar=0
UVM_INFO sr_scoreboard.sv(50) @ 340: uvm_test_top.env_h.scoreboard_h [write_drv STIM]  s=0  r=0
UVM_INFO sr_scoreboard.sv(99) @ 340: uvm_test_top.env_h.scoreboard_h [
 [ PASS ]  s=1  r=0 ||  q=1 qbar=0
UVM_INFO sr_scoreboard.sv(82) @ 345: uvm_test_top.env_h.scoreboard_h [write_mon OUT ]  s=0  r=0 ||  q=1 qbar=0
UVM_INFO sr_scoreboard.sv(50) @ 345: uvm_test_top.env_h.scoreboard_h [write_drv STIM]  s=1  r=0
UVM_INFO sr_scoreboard.sv(99) @ 345: uvm_test_top.env_h.scoreboard_h [
 [ PASS ]  s=0  r=0 ||  q=1 qbar=0
UVM_INFO sr_scoreboard.sv(82) @ 350: uvm_test_top.env_h.scoreboard_h [write_mon OUT ]  s=1  r=0 ||  q=1 qbar=0
