transcript
# vsim -coverage -vopt work.top -c -do "coverage save -onexit -directive -codeAll coverage_data; run -all; exit" 
# Start time: 15:02:45 on Feb 14,2024
# ** Note: (vsim-3813) Design is being optimized due to module recompilation...
# ** Warning: sr_sequence.sv(25): (vopt-2240) Treating stand-alone use of function 'randomize' as an implicit VOID cast.
# ** Warning: sr_sequence.sv(56): (vopt-2240) Treating stand-alone use of function 'randomize' as an implicit VOID cast.
# ** Warning: sr_sequence.sv(90): (vopt-2240) Treating stand-alone use of function 'randomize' as an implicit VOID cast.
# ** Warning: sr_sequence.sv(124): (vopt-2240) Treating stand-alone use of function 'randomize' as an implicit VOID cast.
# //  Questa Sim
# //  Version 10.6c linux Jul 25 2017
# //
# //  Copyright 1991-2017 Mentor Graphics Corporation
# //  All Rights Reserved.
# //
# //  QuestaSim and its associated documentation contain trade
# //  secrets and commercial or financial information that are the property of
# //  Mentor Graphics Corporation and are privileged, confidential,
# //  and exempt from disclosure under the Freedom of Information Act,
# //  5 U.S.C. Section 552. Furthermore, this information
# //  is prohibited from disclosure under the Trade Secrets Act,
# //  18 U.S.C. Section 1905.
# //
# Loading sv_std.std
# Loading work.intf(fast)
# Loading mtiUvm.uvm_pkg
# Loading work.tb_pkg(fast)
# Loading work.top(fast)
# Loading work.intf(fast)
# Loading work.sr(fast)
# Loading mtiUvm.questa_uvm_pkg(fast)
# Loading /tools/mentor/questasim_10.6c/questasim/uvm-1.1d/linux/uvm_dpi.so
# coverage save -onexit -directive -codeAll coverage_data
#  run -all
# ----------------------------------------------------------------
# UVM-1.1d
# (C) 2007-2013 Mentor Graphics Corporation
# (C) 2007-2013 Cadence Design Systems, Inc.
# (C) 2006-2013 Synopsys, Inc.
# (C) 2011-2013 Cypress Semiconductor Corp.
# ----------------------------------------------------------------
# 
#   ***********       IMPORTANT RELEASE NOTES         ************
# 
#   You are using a version of the UVM library that has been compiled
#   with `UVM_NO_DEPRECATED undefined.
#   See http://www.eda.org/svdb/view.php?id=3313 for more details.
# 
#   You are using a version of the UVM library that has been compiled
#   with `UVM_OBJECT_MUST_HAVE_CONSTRUCTOR undefined.
#   See http://www.eda.org/svdb/view.php?id=3770 for more details.
# 
#       (Specify +UVM_NO_RELNOTES to turn off this notice)
# 
# UVM_INFO verilog_src/questa_uvm_pkg-1.2/src/questa_uvm_pkg.sv(215) @ 0: reporter [Questa UVM] QUESTA_UVM-1.2.3
# UVM_INFO verilog_src/questa_uvm_pkg-1.2/src/questa_uvm_pkg.sv(217) @ 0: reporter [Questa UVM]  questa_uvm::init(+struct)
# UVM_INFO @ 0: reporter [RNTST] Running test sr_test...
# start_of_simulation_phase
# UVM_INFO sr_scoreboard.sv(82) @ 5: uvm_test_top.env_h.scoreboard_h [write_mon OUT ]  s=0  r=0 ||  q=x qbar=x
# UVM_INFO sr_scoreboard.sv(50) @ 5: uvm_test_top.env_h.scoreboard_h [write_drv STIM]  s=1  r=0
# UVM_INFO sr_scoreboard.sv(82) @ 10: uvm_test_top.env_h.scoreboard_h [write_mon OUT ]  s=1  r=0 ||  q=1 qbar=0
# UVM_INFO sr_scoreboard.sv(50) @ 10: uvm_test_top.env_h.scoreboard_h [write_drv STIM]  s=1  r=0
# UVM_INFO sr_scoreboard.sv(99) @ 10: uvm_test_top.env_h.scoreboard_h [
#  [ PASS ]  s=1  r=0 ||  q=1 qbar=0
# UVM_INFO sr_scoreboard.sv(82) @ 15: uvm_test_top.env_h.scoreboard_h [write_mon OUT ]  s=1  r=0 ||  q=1 qbar=0
# UVM_INFO sr_scoreboard.sv(50) @ 15: uvm_test_top.env_h.scoreboard_h [write_drv STIM]  s=0  r=1
# UVM_INFO sr_scoreboard.sv(99) @ 15: uvm_test_top.env_h.scoreboard_h [
#  [ PASS ]  s=1  r=0 ||  q=1 qbar=0
# UVM_INFO sr_scoreboard.sv(82) @ 20: uvm_test_top.env_h.scoreboard_h [write_mon OUT ]  s=0  r=1 ||  q=0 qbar=1
# UVM_INFO sr_scoreboard.sv(50) @ 20: uvm_test_top.env_h.scoreboard_h [write_drv STIM]  s=0  r=1
# UVM_INFO sr_scoreboard.sv(99) @ 20: uvm_test_top.env_h.scoreboard_h [
#  [ PASS ]  s=0  r=1 ||  q=0 qbar=1
# UVM_INFO sr_scoreboard.sv(82) @ 25: uvm_test_top.env_h.scoreboard_h [write_mon OUT ]  s=0  r=1 ||  q=0 qbar=1
# UVM_INFO sr_scoreboard.sv(50) @ 25: uvm_test_top.env_h.scoreboard_h [write_drv STIM]  s=1  r=1
# UVM_INFO sr_scoreboard.sv(99) @ 25: uvm_test_top.env_h.scoreboard_h [
#  [ PASS ]  s=0  r=1 ||  q=0 qbar=1
# UVM_INFO sr_scoreboard.sv(82) @ 30: uvm_test_top.env_h.scoreboard_h [write_mon OUT ]  s=1  r=1 ||  q=x qbar=x
# UVM_INFO sr_scoreboard.sv(50) @ 30: uvm_test_top.env_h.scoreboard_h [write_drv STIM]  s=1  r=0
# UVM_INFO sr_scoreboard.sv(99) @ 30: uvm_test_top.env_h.scoreboard_h [
#  [ PASS ]  s=1  r=1 ||  q=x qbar=x
# UVM_INFO sr_scoreboard.sv(82) @ 35: uvm_test_top.env_h.scoreboard_h [write_mon OUT ]  s=1  r=0 ||  q=1 qbar=0
# UVM_INFO sr_scoreboard.sv(50) @ 35: uvm_test_top.env_h.scoreboard_h [write_drv STIM]  s=0  r=0
# UVM_INFO sr_scoreboard.sv(99) @ 35: uvm_test_top.env_h.scoreboard_h [
#  [ PASS ]  s=1  r=0 ||  q=1 qbar=0
# UVM_INFO sr_scoreboard.sv(82) @ 40: uvm_test_top.env_h.scoreboard_h [write_mon OUT ]  s=0  r=0 ||  q=1 qbar=0
# UVM_INFO sr_scoreboard.sv(50) @ 40: uvm_test_top.env_h.scoreboard_h [write_drv STIM]  s=0  r=0
# UVM_INFO sr_scoreboard.sv(99) @ 40: uvm_test_top.env_h.scoreboard_h [
#  [ PASS ]  s=0  r=0 ||  q=1 qbar=0
# UVM_INFO sr_scoreboard.sv(82) @ 45: uvm_test_top.env_h.scoreboard_h [write_mon OUT ]  s=0  r=0 ||  q=1 qbar=0
# UVM_INFO sr_scoreboard.sv(50) @ 45: uvm_test_top.env_h.scoreboard_h [write_drv STIM]  s=0  r=1
# UVM_INFO sr_scoreboard.sv(99) @ 45: uvm_test_top.env_h.scoreboard_h [
#  [ PASS ]  s=0  r=0 ||  q=1 qbar=0
# UVM_INFO sr_scoreboard.sv(82) @ 50: uvm_test_top.env_h.scoreboard_h [write_mon OUT ]  s=0  r=1 ||  q=0 qbar=1
# UVM_INFO sr_scoreboard.sv(50) @ 50: uvm_test_top.env_h.scoreboard_h [write_drv STIM]  s=0  r=0
# UVM_INFO sr_scoreboard.sv(99) @ 50: uvm_test_top.env_h.scoreboard_h [
#  [ PASS ]  s=0  r=1 ||  q=0 qbar=1
# UVM_INFO sr_scoreboard.sv(82) @ 55: uvm_test_top.env_h.scoreboard_h [write_mon OUT ]  s=0  r=0 ||  q=0 qbar=1
# UVM_INFO sr_scoreboard.sv(50) @ 55: uvm_test_top.env_h.scoreboard_h [write_drv STIM]  s=1  r=1
# UVM_INFO sr_scoreboard.sv(99) @ 55: uvm_test_top.env_h.scoreboard_h [
#  [ PASS ]  s=0  r=0 ||  q=0 qbar=1
# UVM_INFO sr_scoreboard.sv(82) @ 60: uvm_test_top.env_h.scoreboard_h [write_mon OUT ]  s=1  r=1 ||  q=x qbar=x
# UVM_INFO sr_scoreboard.sv(50) @ 60: uvm_test_top.env_h.scoreboard_h [write_drv STIM]  s=1  r=1
# UVM_INFO sr_scoreboard.sv(99) @ 60: uvm_test_top.env_h.scoreboard_h [
#  [ PASS ]  s=1  r=1 ||  q=x qbar=x
# UVM_INFO sr_scoreboard.sv(82) @ 65: uvm_test_top.env_h.scoreboard_h [write_mon OUT ]  s=1  r=1 ||  q=x qbar=x
# UVM_INFO sr_scoreboard.sv(50) @ 65: uvm_test_top.env_h.scoreboard_h [write_drv STIM]  s=1  r=0
# UVM_INFO sr_scoreboard.sv(99) @ 65: uvm_test_top.env_h.scoreboard_h [
#  [ PASS ]  s=1  r=1 ||  q=x qbar=x
# UVM_INFO sr_scoreboard.sv(82) @ 70: uvm_test_top.env_h.scoreboard_h [write_mon OUT ]  s=1  r=0 ||  q=1 qbar=0
# UVM_INFO sr_scoreboard.sv(50) @ 70: uvm_test_top.env_h.scoreboard_h [write_drv STIM]  s=0  r=0
# UVM_INFO sr_scoreboard.sv(99) @ 70: uvm_test_top.env_h.scoreboard_h [
#  [ PASS ]  s=1  r=0 ||  q=1 qbar=0
# UVM_INFO sr_scoreboard.sv(82) @ 75: uvm_test_top.env_h.scoreboard_h [write_mon OUT ]  s=0  r=0 ||  q=1 qbar=0
# UVM_INFO sr_scoreboard.sv(50) @ 75: uvm_test_top.env_h.scoreboard_h [write_drv STIM]  s=0  r=1
# UVM_INFO sr_scoreboard.sv(99) @ 75: uvm_test_top.env_h.scoreboard_h [
#  [ PASS ]  s=0  r=0 ||  q=1 qbar=0
# UVM_INFO sr_scoreboard.sv(82) @ 80: uvm_test_top.env_h.scoreboard_h [write_mon OUT ]  s=0  r=1 ||  q=0 qbar=1
# UVM_INFO sr_scoreboard.sv(50) @ 80: uvm_test_top.env_h.scoreboard_h [write_drv STIM]  s=0  r=0
# UVM_INFO sr_scoreboard.sv(99) @ 80: uvm_test_top.env_h.scoreboard_h [
#  [ PASS ]  s=0  r=1 ||  q=0 qbar=1
# UVM_INFO sr_scoreboard.sv(82) @ 85: uvm_test_top.env_h.scoreboard_h [write_mon OUT ]  s=0  r=0 ||  q=0 qbar=1
# UVM_INFO sr_scoreboard.sv(50) @ 85: uvm_test_top.env_h.scoreboard_h [write_drv STIM]  s=0  r=0
# UVM_INFO sr_scoreboard.sv(99) @ 85: uvm_test_top.env_h.scoreboard_h [
#  [ PASS ]  s=0  r=0 ||  q=0 qbar=1
# UVM_INFO sr_scoreboard.sv(82) @ 90: uvm_test_top.env_h.scoreboard_h [write_mon OUT ]  s=0  r=0 ||  q=0 qbar=1
# UVM_INFO sr_scoreboard.sv(50) @ 90: uvm_test_top.env_h.scoreboard_h [write_drv STIM]  s=1  r=0
# UVM_INFO sr_scoreboard.sv(99) @ 90: uvm_test_top.env_h.scoreboard_h [
#  [ PASS ]  s=0  r=0 ||  q=0 qbar=1
# UVM_INFO sr_scoreboard.sv(82) @ 95: uvm_test_top.env_h.scoreboard_h [write_mon OUT ]  s=1  r=0 ||  q=1 qbar=0
# UVM_INFO sr_scoreboard.sv(50) @ 95: uvm_test_top.env_h.scoreboard_h [write_drv STIM]  s=0  r=0
# UVM_INFO sr_scoreboard.sv(99) @ 95: uvm_test_top.env_h.scoreboard_h [
#  [ PASS ]  s=1  r=0 ||  q=1 qbar=0
# UVM_INFO sr_scoreboard.sv(82) @ 100: uvm_test_top.env_h.scoreboard_h [write_mon OUT ]  s=0  r=0 ||  q=1 qbar=0
# UVM_INFO sr_scoreboard.sv(50) @ 100: uvm_test_top.env_h.scoreboard_h [write_drv STIM]  s=0  r=1
# UVM_INFO sr_scoreboard.sv(99) @ 100: uvm_test_top.env_h.scoreboard_h [
#  [ PASS ]  s=0  r=0 ||  q=1 qbar=0
# UVM_INFO sr_scoreboard.sv(82) @ 105: uvm_test_top.env_h.scoreboard_h [write_mon OUT ]  s=0  r=1 ||  q=0 qbar=1
# UVM_INFO sr_scoreboard.sv(50) @ 105: uvm_test_top.env_h.scoreboard_h [write_drv STIM]  s=0  r=0
# UVM_INFO sr_scoreboard.sv(99) @ 105: uvm_test_top.env_h.scoreboard_h [
#  [ PASS ]  s=0  r=1 ||  q=0 qbar=1
# UVM_INFO sr_scoreboard.sv(82) @ 110: uvm_test_top.env_h.scoreboard_h [write_mon OUT ]  s=0  r=0 ||  q=0 qbar=1
# UVM_INFO sr_scoreboard.sv(50) @ 110: uvm_test_top.env_h.scoreboard_h [write_drv STIM]  s=1  r=0
# UVM_INFO sr_scoreboard.sv(99) @ 110: uvm_test_top.env_h.scoreboard_h [
#  [ PASS ]  s=0  r=0 ||  q=0 qbar=1
# UVM_INFO sr_scoreboard.sv(82) @ 115: uvm_test_top.env_h.scoreboard_h [write_mon OUT ]  s=1  r=0 ||  q=1 qbar=0
# UVM_INFO sr_scoreboard.sv(50) @ 115: uvm_test_top.env_h.scoreboard_h [write_drv STIM]  s=0  r=1
# UVM_INFO sr_scoreboard.sv(99) @ 115: uvm_test_top.env_h.scoreboard_h [
#  [ PASS ]  s=1  r=0 ||  q=1 qbar=0
# UVM_INFO sr_scoreboard.sv(82) @ 120: uvm_test_top.env_h.scoreboard_h [write_mon OUT ]  s=0  r=1 ||  q=0 qbar=1
# UVM_INFO sr_scoreboard.sv(50) @ 120: uvm_test_top.env_h.scoreboard_h [write_drv STIM]  s=1  r=0
# UVM_INFO sr_scoreboard.sv(99) @ 120: uvm_test_top.env_h.scoreboard_h [
#  [ PASS ]  s=0  r=1 ||  q=0 qbar=1
# UVM_INFO sr_scoreboard.sv(82) @ 125: uvm_test_top.env_h.scoreboard_h [write_mon OUT ]  s=1  r=0 ||  q=1 qbar=0
# UVM_INFO sr_scoreboard.sv(50) @ 125: uvm_test_top.env_h.scoreboard_h [write_drv STIM]  s=0  r=0
# UVM_INFO sr_scoreboard.sv(99) @ 125: uvm_test_top.env_h.scoreboard_h [
#  [ PASS ]  s=1  r=0 ||  q=1 qbar=0
# UVM_INFO sr_scoreboard.sv(82) @ 130: uvm_test_top.env_h.scoreboard_h [write_mon OUT ]  s=0  r=0 ||  q=1 qbar=0
# UVM_INFO sr_scoreboard.sv(50) @ 130: uvm_test_top.env_h.scoreboard_h [write_drv STIM]  s=0  r=1
# UVM_INFO sr_scoreboard.sv(99) @ 130: uvm_test_top.env_h.scoreboard_h [
#  [ PASS ]  s=0  r=0 ||  q=1 qbar=0
# UVM_INFO sr_scoreboard.sv(82) @ 135: uvm_test_top.env_h.scoreboard_h [write_mon OUT ]  s=0  r=1 ||  q=0 qbar=1
# UVM_INFO sr_scoreboard.sv(50) @ 135: uvm_test_top.env_h.scoreboard_h [write_drv STIM]  s=1  r=0
# UVM_INFO sr_scoreboard.sv(99) @ 135: uvm_test_top.env_h.scoreboard_h [
#  [ PASS ]  s=0  r=1 ||  q=0 qbar=1
# UVM_INFO sr_scoreboard.sv(82) @ 140: uvm_test_top.env_h.scoreboard_h [write_mon OUT ]  s=1  r=0 ||  q=1 qbar=0
# UVM_INFO sr_scoreboard.sv(50) @ 140: uvm_test_top.env_h.scoreboard_h [write_drv STIM]  s=0  r=0
# UVM_INFO sr_scoreboard.sv(99) @ 140: uvm_test_top.env_h.scoreboard_h [
#  [ PASS ]  s=1  r=0 ||  q=1 qbar=0
# UVM_INFO sr_scoreboard.sv(82) @ 145: uvm_test_top.env_h.scoreboard_h [write_mon OUT ]  s=0  r=0 ||  q=1 qbar=0
# UVM_INFO sr_scoreboard.sv(50) @ 145: uvm_test_top.env_h.scoreboard_h [write_drv STIM]  s=0  r=1
# UVM_INFO sr_scoreboard.sv(99) @ 145: uvm_test_top.env_h.scoreboard_h [
#  [ PASS ]  s=0  r=0 ||  q=1 qbar=0
# UVM_INFO sr_scoreboard.sv(82) @ 150: uvm_test_top.env_h.scoreboard_h [write_mon OUT ]  s=0  r=1 ||  q=0 qbar=1
# UVM_INFO sr_scoreboard.sv(50) @ 150: uvm_test_top.env_h.scoreboard_h [write_drv STIM]  s=1  r=1
# UVM_INFO sr_scoreboard.sv(99) @ 150: uvm_test_top.env_h.scoreboard_h [
#  [ PASS ]  s=0  r=1 ||  q=0 qbar=1
# UVM_INFO sr_scoreboard.sv(82) @ 155: uvm_test_top.env_h.scoreboard_h [write_mon OUT ]  s=1  r=1 ||  q=x qbar=x
# UVM_INFO sr_scoreboard.sv(50) @ 155: uvm_test_top.env_h.scoreboard_h [write_drv STIM]  s=1  r=1
# UVM_INFO sr_scoreboard.sv(99) @ 155: uvm_test_top.env_h.scoreboard_h [
#  [ PASS ]  s=1  r=1 ||  q=x qbar=x
# UVM_INFO sr_scoreboard.sv(82) @ 160: uvm_test_top.env_h.scoreboard_h [write_mon OUT ]  s=1  r=1 ||  q=x qbar=x
# UVM_INFO sr_scoreboard.sv(50) @ 160: uvm_test_top.env_h.scoreboard_h [write_drv STIM]  s=0  r=1
# UVM_INFO sr_scoreboard.sv(99) @ 160: uvm_test_top.env_h.scoreboard_h [
#  [ PASS ]  s=1  r=1 ||  q=x qbar=x
# UVM_INFO sr_scoreboard.sv(82) @ 165: uvm_test_top.env_h.scoreboard_h [write_mon OUT ]  s=0  r=1 ||  q=0 qbar=1
# UVM_INFO sr_scoreboard.sv(50) @ 165: uvm_test_top.env_h.scoreboard_h [write_drv STIM]  s=0  r=1
# UVM_INFO sr_scoreboard.sv(99) @ 165: uvm_test_top.env_h.scoreboard_h [
#  [ PASS ]  s=0  r=1 ||  q=0 qbar=1
# UVM_INFO sr_scoreboard.sv(82) @ 170: uvm_test_top.env_h.scoreboard_h [write_mon OUT ]  s=0  r=1 ||  q=0 qbar=1
# UVM_INFO sr_scoreboard.sv(50) @ 170: uvm_test_top.env_h.scoreboard_h [write_drv STIM]  s=0  r=0
# UVM_INFO sr_scoreboard.sv(99) @ 170: uvm_test_top.env_h.scoreboard_h [
#  [ PASS ]  s=0  r=1 ||  q=0 qbar=1
# UVM_INFO sr_scoreboard.sv(82) @ 175: uvm_test_top.env_h.scoreboard_h [write_mon OUT ]  s=0  r=0 ||  q=0 qbar=1
# UVM_INFO sr_scoreboard.sv(50) @ 175: uvm_test_top.env_h.scoreboard_h [write_drv STIM]  s=1  r=1
# UVM_INFO sr_scoreboard.sv(99) @ 175: uvm_test_top.env_h.scoreboard_h [
#  [ PASS ]  s=0  r=0 ||  q=0 qbar=1
# UVM_INFO sr_scoreboard.sv(82) @ 180: uvm_test_top.env_h.scoreboard_h [write_mon OUT ]  s=1  r=1 ||  q=x qbar=x
# UVM_INFO sr_scoreboard.sv(50) @ 180: uvm_test_top.env_h.scoreboard_h [write_drv STIM]  s=0  r=1
# UVM_INFO sr_scoreboard.sv(99) @ 180: uvm_test_top.env_h.scoreboard_h [
#  [ PASS ]  s=1  r=1 ||  q=x qbar=x
# UVM_INFO sr_scoreboard.sv(82) @ 185: uvm_test_top.env_h.scoreboard_h [write_mon OUT ]  s=0  r=1 ||  q=0 qbar=1
# UVM_INFO sr_scoreboard.sv(50) @ 185: uvm_test_top.env_h.scoreboard_h [write_drv STIM]  s=0  r=1
# UVM_INFO sr_scoreboard.sv(99) @ 185: uvm_test_top.env_h.scoreboard_h [
#  [ PASS ]  s=0  r=1 ||  q=0 qbar=1
# UVM_INFO sr_scoreboard.sv(82) @ 190: uvm_test_top.env_h.scoreboard_h [write_mon OUT ]  s=0  r=1 ||  q=0 qbar=1
# UVM_INFO sr_scoreboard.sv(50) @ 190: uvm_test_top.env_h.scoreboard_h [write_drv STIM]  s=0  r=0
# UVM_INFO sr_scoreboard.sv(99) @ 190: uvm_test_top.env_h.scoreboard_h [
#  [ PASS ]  s=0  r=1 ||  q=0 qbar=1
# UVM_INFO sr_scoreboard.sv(82) @ 195: uvm_test_top.env_h.scoreboard_h [write_mon OUT ]  s=0  r=0 ||  q=0 qbar=1
# UVM_INFO sr_scoreboard.sv(50) @ 195: uvm_test_top.env_h.scoreboard_h [write_drv STIM]  s=1  r=0
# UVM_INFO sr_scoreboard.sv(99) @ 195: uvm_test_top.env_h.scoreboard_h [
#  [ PASS ]  s=0  r=0 ||  q=0 qbar=1
# UVM_INFO sr_scoreboard.sv(82) @ 200: uvm_test_top.env_h.scoreboard_h [write_mon OUT ]  s=1  r=0 ||  q=1 qbar=0
# UVM_INFO sr_scoreboard.sv(50) @ 200: uvm_test_top.env_h.scoreboard_h [write_drv STIM]  s=0  r=1
# UVM_INFO sr_scoreboard.sv(99) @ 200: uvm_test_top.env_h.scoreboard_h [
#  [ PASS ]  s=1  r=0 ||  q=1 qbar=0
# UVM_INFO sr_scoreboard.sv(82) @ 205: uvm_test_top.env_h.scoreboard_h [write_mon OUT ]  s=0  r=1 ||  q=0 qbar=1
# UVM_INFO sr_scoreboard.sv(50) @ 205: uvm_test_top.env_h.scoreboard_h [write_drv STIM]  s=0  r=1
# UVM_INFO sr_scoreboard.sv(99) @ 205: uvm_test_top.env_h.scoreboard_h [
#  [ PASS ]  s=0  r=1 ||  q=0 qbar=1
# UVM_INFO sr_scoreboard.sv(82) @ 210: uvm_test_top.env_h.scoreboard_h [write_mon OUT ]  s=0  r=1 ||  q=0 qbar=1
# UVM_INFO sr_scoreboard.sv(50) @ 210: uvm_test_top.env_h.scoreboard_h [write_drv STIM]  s=1  r=0
# UVM_INFO sr_scoreboard.sv(99) @ 210: uvm_test_top.env_h.scoreboard_h [
#  [ PASS ]  s=0  r=1 ||  q=0 qbar=1
# UVM_INFO sr_scoreboard.sv(82) @ 215: uvm_test_top.env_h.scoreboard_h [write_mon OUT ]  s=1  r=0 ||  q=1 qbar=0
# UVM_INFO sr_scoreboard.sv(50) @ 215: uvm_test_top.env_h.scoreboard_h [write_drv STIM]  s=1  r=1
# UVM_INFO sr_scoreboard.sv(99) @ 215: uvm_test_top.env_h.scoreboard_h [
#  [ PASS ]  s=1  r=0 ||  q=1 qbar=0
# UVM_INFO sr_scoreboard.sv(82) @ 220: uvm_test_top.env_h.scoreboard_h [write_mon OUT ]  s=1  r=1 ||  q=x qbar=x
# UVM_INFO sr_scoreboard.sv(50) @ 220: uvm_test_top.env_h.scoreboard_h [write_drv STIM]  s=1  r=1
# UVM_INFO sr_scoreboard.sv(99) @ 220: uvm_test_top.env_h.scoreboard_h [
#  [ PASS ]  s=1  r=1 ||  q=x qbar=x
# UVM_INFO sr_scoreboard.sv(82) @ 225: uvm_test_top.env_h.scoreboard_h [write_mon OUT ]  s=1  r=1 ||  q=x qbar=x
# UVM_INFO sr_scoreboard.sv(50) @ 225: uvm_test_top.env_h.scoreboard_h [write_drv STIM]  s=0  r=1
# UVM_INFO sr_scoreboard.sv(99) @ 225: uvm_test_top.env_h.scoreboard_h [
#  [ PASS ]  s=1  r=1 ||  q=x qbar=x
# UVM_INFO sr_scoreboard.sv(82) @ 230: uvm_test_top.env_h.scoreboard_h [write_mon OUT ]  s=0  r=1 ||  q=0 qbar=1
# UVM_INFO sr_scoreboard.sv(50) @ 230: uvm_test_top.env_h.scoreboard_h [write_drv STIM]  s=1  r=1
# UVM_INFO sr_scoreboard.sv(99) @ 230: uvm_test_top.env_h.scoreboard_h [
#  [ PASS ]  s=0  r=1 ||  q=0 qbar=1
# UVM_INFO sr_scoreboard.sv(82) @ 235: uvm_test_top.env_h.scoreboard_h [write_mon OUT ]  s=1  r=1 ||  q=x qbar=x
# UVM_INFO sr_scoreboard.sv(50) @ 235: uvm_test_top.env_h.scoreboard_h [write_drv STIM]  s=0  r=1
# UVM_INFO sr_scoreboard.sv(99) @ 235: uvm_test_top.env_h.scoreboard_h [
#  [ PASS ]  s=1  r=1 ||  q=x qbar=x
# UVM_INFO sr_scoreboard.sv(82) @ 240: uvm_test_top.env_h.scoreboard_h [write_mon OUT ]  s=0  r=1 ||  q=0 qbar=1
# UVM_INFO sr_scoreboard.sv(50) @ 240: uvm_test_top.env_h.scoreboard_h [write_drv STIM]  s=1  r=1
# UVM_INFO sr_scoreboard.sv(99) @ 240: uvm_test_top.env_h.scoreboard_h [
#  [ PASS ]  s=0  r=1 ||  q=0 qbar=1
# UVM_INFO sr_scoreboard.sv(82) @ 245: uvm_test_top.env_h.scoreboard_h [write_mon OUT ]  s=1  r=1 ||  q=x qbar=x
# UVM_INFO sr_scoreboard.sv(50) @ 245: uvm_test_top.env_h.scoreboard_h [write_drv STIM]  s=0  r=1
# UVM_INFO sr_scoreboard.sv(99) @ 245: uvm_test_top.env_h.scoreboard_h [
#  [ PASS ]  s=1  r=1 ||  q=x qbar=x
# UVM_INFO sr_scoreboard.sv(82) @ 250: uvm_test_top.env_h.scoreboard_h [write_mon OUT ]  s=0  r=1 ||  q=0 qbar=1
# UVM_INFO sr_scoreboard.sv(50) @ 250: uvm_test_top.env_h.scoreboard_h [write_drv STIM]  s=0  r=1
# UVM_INFO sr_scoreboard.sv(99) @ 250: uvm_test_top.env_h.scoreboard_h [
#  [ PASS ]  s=0  r=1 ||  q=0 qbar=1
# UVM_INFO sr_scoreboard.sv(82) @ 255: uvm_test_top.env_h.scoreboard_h [write_mon OUT ]  s=0  r=1 ||  q=0 qbar=1
# UVM_INFO sr_scoreboard.sv(50) @ 255: uvm_test_top.env_h.scoreboard_h [write_drv STIM]  s=1  r=0
# UVM_INFO sr_scoreboard.sv(99) @ 255: uvm_test_top.env_h.scoreboard_h [
#  [ PASS ]  s=0  r=1 ||  q=0 qbar=1
# UVM_INFO sr_scoreboard.sv(82) @ 260: uvm_test_top.env_h.scoreboard_h [write_mon OUT ]  s=1  r=0 ||  q=1 qbar=0
# UVM_INFO sr_scoreboard.sv(50) @ 260: uvm_test_top.env_h.scoreboard_h [write_drv STIM]  s=0  r=0
# UVM_INFO sr_scoreboard.sv(99) @ 260: uvm_test_top.env_h.scoreboard_h [
#  [ PASS ]  s=1  r=0 ||  q=1 qbar=0
# UVM_INFO sr_scoreboard.sv(82) @ 265: uvm_test_top.env_h.scoreboard_h [write_mon OUT ]  s=0  r=0 ||  q=1 qbar=0
# UVM_INFO sr_scoreboard.sv(50) @ 265: uvm_test_top.env_h.scoreboard_h [write_drv STIM]  s=1  r=0
# UVM_INFO sr_scoreboard.sv(99) @ 265: uvm_test_top.env_h.scoreboard_h [
#  [ PASS ]  s=0  r=0 ||  q=1 qbar=0
# UVM_INFO sr_scoreboard.sv(82) @ 270: uvm_test_top.env_h.scoreboard_h [write_mon OUT ]  s=1  r=0 ||  q=1 qbar=0
# UVM_INFO sr_scoreboard.sv(50) @ 270: uvm_test_top.env_h.scoreboard_h [write_drv STIM]  s=0  r=0
# UVM_INFO sr_scoreboard.sv(99) @ 270: uvm_test_top.env_h.scoreboard_h [
#  [ PASS ]  s=1  r=0 ||  q=1 qbar=0
# UVM_INFO sr_scoreboard.sv(82) @ 275: uvm_test_top.env_h.scoreboard_h [write_mon OUT ]  s=0  r=0 ||  q=1 qbar=0
# UVM_INFO sr_scoreboard.sv(50) @ 275: uvm_test_top.env_h.scoreboard_h [write_drv STIM]  s=1  r=0
# UVM_INFO sr_scoreboard.sv(99) @ 275: uvm_test_top.env_h.scoreboard_h [
#  [ PASS ]  s=0  r=0 ||  q=1 qbar=0
# UVM_INFO sr_scoreboard.sv(82) @ 280: uvm_test_top.env_h.scoreboard_h [write_mon OUT ]  s=1  r=0 ||  q=1 qbar=0
# UVM_INFO sr_scoreboard.sv(50) @ 280: uvm_test_top.env_h.scoreboard_h [write_drv STIM]  s=0  r=0
# UVM_INFO sr_scoreboard.sv(99) @ 280: uvm_test_top.env_h.scoreboard_h [
#  [ PASS ]  s=1  r=0 ||  q=1 qbar=0
# UVM_INFO sr_scoreboard.sv(82) @ 285: uvm_test_top.env_h.scoreboard_h [write_mon OUT ]  s=0  r=0 ||  q=1 qbar=0
# UVM_INFO sr_scoreboard.sv(50) @ 285: uvm_test_top.env_h.scoreboard_h [write_drv STIM]  s=1  r=0
# UVM_INFO sr_scoreboard.sv(99) @ 285: uvm_test_top.env_h.scoreboard_h [
#  [ PASS ]  s=0  r=0 ||  q=1 qbar=0
# UVM_INFO sr_scoreboard.sv(82) @ 290: uvm_test_top.env_h.scoreboard_h [write_mon OUT ]  s=1  r=0 ||  q=1 qbar=0
# UVM_INFO sr_scoreboard.sv(50) @ 290: uvm_test_top.env_h.scoreboard_h [write_drv STIM]  s=0  r=0
# UVM_INFO sr_scoreboard.sv(99) @ 290: uvm_test_top.env_h.scoreboard_h [
#  [ PASS ]  s=1  r=0 ||  q=1 qbar=0
# UVM_INFO sr_scoreboard.sv(82) @ 295: uvm_test_top.env_h.scoreboard_h [write_mon OUT ]  s=0  r=0 ||  q=1 qbar=0
# UVM_INFO sr_scoreboard.sv(50) @ 295: uvm_test_top.env_h.scoreboard_h [write_drv STIM]  s=1  r=0
# UVM_INFO sr_scoreboard.sv(99) @ 295: uvm_test_top.env_h.scoreboard_h [
#  [ PASS ]  s=0  r=0 ||  q=1 qbar=0
# UVM_INFO sr_scoreboard.sv(82) @ 300: uvm_test_top.env_h.scoreboard_h [write_mon OUT ]  s=1  r=0 ||  q=1 qbar=0
# UVM_INFO sr_scoreboard.sv(50) @ 300: uvm_test_top.env_h.scoreboard_h [write_drv STIM]  s=0  r=0
# UVM_INFO sr_scoreboard.sv(99) @ 300: uvm_test_top.env_h.scoreboard_h [
#  [ PASS ]  s=1  r=0 ||  q=1 qbar=0
# UVM_INFO sr_scoreboard.sv(82) @ 305: uvm_test_top.env_h.scoreboard_h [write_mon OUT ]  s=0  r=0 ||  q=1 qbar=0
# UVM_INFO sr_scoreboard.sv(50) @ 305: uvm_test_top.env_h.scoreboard_h [write_drv STIM]  s=1  r=0
# UVM_INFO sr_scoreboard.sv(99) @ 305: uvm_test_top.env_h.scoreboard_h [
#  [ PASS ]  s=0  r=0 ||  q=1 qbar=0
# UVM_INFO sr_scoreboard.sv(82) @ 310: uvm_test_top.env_h.scoreboard_h [write_mon OUT ]  s=1  r=0 ||  q=1 qbar=0
# UVM_INFO sr_scoreboard.sv(50) @ 310: uvm_test_top.env_h.scoreboard_h [write_drv STIM]  s=0  r=0
# UVM_INFO sr_scoreboard.sv(99) @ 310: uvm_test_top.env_h.scoreboard_h [
#  [ PASS ]  s=1  r=0 ||  q=1 qbar=0
